[{
  "name": "A3: 🍅cards",
  "description": "Dieser Kubus beschreibt die Eigenschaften und Funktionen der gamifizierten Quiz-App [arsnova.click](https://arsnova.click).",
  "date": "2019-04-01T12:27:16.693Z",
  "dateUpdated": "2019-04-14T17:15:15.570Z",
  "editors": [],
  "owner": "jCZ6oHcbZhJaKKodN",
  "visible": true,
  "ratings": true,
  "kind": "free",
  "price": 0,
  "reviewed": false,
  "reviewer": "undefined",
  "request": false,
  "rating": 0,
  "raterCount": 0,
  "quantity": 1,
  "license": [
    "by",
    "nc",
    "sa"
  ],
  "userDeleted": false,
  "learningActive": false,
  "maxCards": 0,
  "daysBeforeReset": 0,
  "learningStart": "1970-01-01T00:00:00.000Z",
  "learningEnd": "1970-01-01T00:00:00.000Z",
  "registrationPeriod": "1970-01-01T00:00:00.000Z",
  "learningInterval": [],
  "wordcloud": false,
  "shuffled": false,
  "cardType": 18,
  "difficulty": 2,
  "noDifficulty": false,
  "originalAuthorName": {
    "title": "Dr.",
    "birthname": "Quibeldey-Cirkel",
    "givenname": "Klaus"
  },
  "workload": {
    "bonus": {
      "count": 0
    },
    "normal": {
      "count": 0
    }
  },
  "sortType": 1
}, {
  "subject": "arsnova.click",
  "front": "(##) Befrag dein Publikum während du mit 🍅cards vorträgst!\n\n![](https://arsnova-uploads.mni.thm.de/Demo-Kartei/Counting_Fingers.png)\n\nDu kennst [Kahoot!](https://kahoot.com/) ? <br>Unser spielbasiertes <q>Audience-Response-System</q> (ARS) heißt [arsnova.click](https://arsnova.click). Es bietet nicht nur Multiple-Choice, sondern auch Formate wie numerische Schätzfrage und Kurzantwort. Bis zu 26 Antwortoptionen sind möglich, so lang wie das Alphabet. Du kannst Emojis, Bilder, Videos, Quelltext und $\\TeX$-Formeln in Frage und Antworten einbinden. Und es können Quiz-Teams gegeneinander antreten.",
  "centerTextElement": [
    true,
    true,
    true,
    true,
    true,
    true
  ],
  "alignType": [
    0,
    0,
    0,
    0,
    0,
    0
  ],
  "date": "2019-04-01T12:31:16.842Z",
  "learningGoalLevel": 0,
  "backgroundStyle": 0,
  "learningIndex": "0",
  "learningUnit": "0",
  "dateUpdated": "2019-04-14T17:15:15.551Z",
  "back": "(##) Edutainment\n\n![Lernmotivation durch Live-Wettbewerb mit Animationen und Sound](https://www.youtube.com/watch?v=InLHgRRkOvI)",
  "bottom": "(##) Veröffentlichungen\n\n* Quibeldey-Cirkel K. (2018). <br>[Lehren und Lernen mit Audience Response Systemen](https://arsnova.thm.de/blog/wp-content/uploads/2017/08/Quibeldey-Cirkel.pdf).<br>In: de Witt C., Gloerfeld C. (Hrsg.) Handbuch Mobile Learning (S. 809-839). Springer VS, Wiesbaden.\n* Fullarton, C. M., Hoeck, T. W. & Quibeldey-Cirkel, K. (2017). <br>[arsnova.click: App für Live-Quizze im MINT-Unterricht](https://arsnova.thm.de/blog/wp-content/uploads/2017/02/DeLFI_2017_Demo-Beitrag_arsnova_click_Klaus_Quibeldey-Cirkel.pdf). (Abstract).<br>In: Christoph Igel, Carsten Ullrich & Martin Wessner (Hrsg.), Bildungsräume: DeLFI 2017 – die 15. e-Learning Fachtagung Informatik der Gesellschaft für Informatik: 5. bis 8. September 2017, Chemnitz, Deutschland. Bonn: Gesellschaft für Informatik e.V.. (S. 389-390).\n* Quibeldey-Cirkel, K., Fullarton, C. M. & Hoeck, T. W. (2017).<br>[arsnova.click: a Game-based Audience-Response System for STEM Courses](https://arsnova-uploads.mni.thm.de/Demo-Kartei/arsnova-click_EDULEARN17.pdf).<br>In: L. Gómez Chova, A. López Martínez & I. Candel Torres (Hrsg.), 9th International Conference on Education and New Learning Technologies. EDULEARN17 Proceedings (S. 8107-8111). Barcelona: IATED.\n\n",
  "hint": "(##) Absoluter Datenschutz\n\n![](https://arsnova.thm.de/blog/wp-content/uploads/2017/01/Bildschirmfoto-2017-01-12-um-16.05.29.png)\n\nWir speichern keine Daten auf dem Server, alle Quizze verbleiben im Browser der Lehrperson. Diese Innovation (Web Storage) garantiert den Datenschutz gemäß der DSGVO beim Einsatz in Bildungseinrichtungen in der Europäischen Union.",
  "lecture": "(##) Bonusvergabe\n\nDie didaktische Besonderheit von arsnova.click ist die Option der Bonusvergabe für die Top Player. Extrinsische Anreize in Form von Bonuspunkten, anrechenbar auf die Abschlussprüfung eines Faches, sind weit verbreitet an Hochschulen. Das ARSnova-Entwicklungsteam geht hier noch einen Schritt wei­ter: Die Bonusvergabe erfolgt im Live-Wettbewerb am Anfang einer Vorlesung, um die Vorbereitung zu prüfen, und am Ende der Vorlesung, um die Auf­merk­samkeit der Studierenden hochzuhalten. \n\nEin Wissensquiz mit Bonusvergabe am Anfang und Ende jeder Vorlesung führt zu mehr und über das Semester anhaltende Präsenz und fördert das aktive Lernen im Hörsaal.\n",
  "top": "(##) Nahtlose Integration in 🍅cards\n\n![Aufruf von arsnova.click mit dem **Button links unten**](https://linux.cards/img/help/de/Rand-Buttons.jpg width=80%)\n\n* Keine Registrierung, keine Anmeldung, keine Installation ([BYOD](https://de.wikipedia.org/wiki/Bring_your_own_device))\n* Jeder darf Quizze erstellen, kostenlos, sofort und beliebig viele. \n* Das Erstellen eines Quiz ist sogar auf dem Smartphone ein Kinderspiel.\n* Extrem einfache, barrierefreie, für den Beamer optimierte Oberfläche",
  "originalAuthorName": {
    "title": "Dr.",
    "birthname": "Quibeldey-Cirkel",
    "givenname": "Klaus"
  },
  "owner": "jCZ6oHcbZhJaKKodN"
}]